Fantasy Football
…
analysis on created dataframe

WeeklyEstimates %>%
  arrange(-ActualMinusPredicted) %>%
  group_by(Team, scoringPeriodId) %>%
  summarise(MeanActualMinusPredicted = mean(ActualMinusPredicted, na.rm = TRUE)) %>%
  arrange(scoringPeriodId)

## # A tibble: 22 x 3
## # Groups:   Team [11]
##    Team                    scoringPeriodId MeanActualMinusPredicted
##    <chr>                             <int>                    <dbl>
##  1 <NA>                                  0                NaN      
##  2 'R'm Chair_Quarterback                1                  0.469  
##  3 Analysis_Paralysis                    1                  0.00500
##  4 Compute _This!                        1                  0.925  
##  5 Dallas_The boys                       1                 -1.60   
##  6 Palindrome_Tikkit                     1                  4.37   
##  7 Philly_Chapmaniacs                    1                  0.242  
##  8 Team_Ward                             1                  1.63   
##  9 The OBJective_Functions               1                 -0.433  
## 10 The_Chief                             1                  2.70   
## # ... with 12 more rows
…
  # facet_wrap(~Starter) 

WeeklyEstimates %>%
  filter(!is.na(ActualMinusPredicted)) %>%
  group_by(Team, scoringPeriodId, Starter) 

## # A tibble: 320 x 10
## # Groups:   Team, scoringPeriodId, Starter [41]
##    scoringPeriodId Player Position Team  playerrosterslot Actual Predicted
##              <int> <chr>  <chr>    <chr>            <dbl>  <dbl>     <dbl>
##  1               1 A.J. ~ Wide Re~ Comp~               21    0         0  
##  2               2 A.J. ~ Wide Re~ Comp~               20    0         0  
##  3               1 Aaron~ Running~ Comp~               23    4.9      12.5
##  4               2 Aaron~ Running~ Comp~               23   25        14.2
##  5               1 Aaron~ Quarter~ Dall~                0   12.9      15.9
##  6               2 Aaron~ Quarter~ Dall~               20   14.4      17.1
##  7               1 Adam ~ Wide Re~ Anal~                4   13.3      15.3
##  8               2 Adam ~ Wide Re~ Anal~                4   12.5      15.4
##  9               1 Adria~ Running~ <NA>                NA    0         0  
## 10               2 Adria~ Running~ Dall~               20   11.2      10.9
## # ... with 310 more rows, and 3 more variables:
## #   ActualMinusPredicted <dbl>, SlottedPosition <chr>, Starter <chr>
…
season

## # A tibble: 65 x 8
##    awayid awaypoints homeid homepoints winner   weekID AwayTeam   HomeTeam 
##     <int>      <dbl>  <int>      <dbl> <chr>     <int> <chr>      <chr>    
##  1      2      138.       9       97.9 Philly ~      1 Philly Ch~ Dallas T~
##  2      3      124.       7      128.  Compute~      1 The Plain~ Compute ~
##  3      6      135.       4      108.  Team Wa~      1 Team Ward  The OBJe~
##  4      1      109.       5      120.  Analysi~      1 'R'm Chai~ Analysis~
##  5     10      130.       8      156.  The Chi~      1 Palindrom~ The Chief
##  6      6      115.       3      143.  The Pla~      2 Team Ward  The Plai~
##  7      9      136.       1      100.0 Dallas ~      2 Dallas Th~ 'R'm Cha~
##  8      2       72.6     10      125.  Palindr~      2 Philly Ch~ Palindro~
##  9      7      136.       5      120.  Compute~      2 Compute T~ Analysis~
## 10      4      145.       8      109.  The OBJ~      2 The OBJec~ The Chief
## # ... with 55 more rows

season %>% select(-awayid,-homeid) %>%
  gather(Location, Points, -winner, -weekID, -AwayTeam,-HomeTeam) %>%
  arrange(weekID) %>%
  group_by(weekID) %>%
  mutate(rank = rank(-Points)) %>%
  mutate(EWETL = rank-1) %>%
  mutate(EWETW = 10-rank) %>%
  group_by()

## # A tibble: 130 x 9
##    winner   weekID AwayTeam    HomeTeam   Location Points  rank EWETL EWETW
##    <chr>     <int> <chr>       <chr>      <chr>     <dbl> <dbl> <dbl> <dbl>
##  1 Philly ~      1 Philly Cha~ Dallas Th~ awaypoi~  138.      2     1     8
##  2 Compute~      1 The Plains~ Compute T~ awaypoi~  124.      6     5     4
##  3 Team Wa~      1 Team Ward   The OBJec~ awaypoi~  135.      3     2     7
##  4 Analysi~      1 'R'm Chair~ Analysis ~ awaypoi~  109.      8     7     2
##  5 The Chi~      1 Palindrome~ The Chief  awaypoi~  130.      4     3     6
##  6 Philly ~      1 Philly Cha~ Dallas Th~ homepoi~   97.9    10     9     0
##  7 Compute~      1 The Plains~ Compute T~ homepoi~  128.      5     4     5
##  8 Team Wa~      1 Team Ward   The OBJec~ homepoi~  108.      9     8     1
##  9 Analysi~      1 'R'm Chair~ Analysis ~ homepoi~  120.      7     6     3
## 10 The Chi~      1 Palindrome~ The Chief  homepoi~  156.      1     0     9
## # ... with 120 more rows
